<svg xmlns="http://www.w3.org/2000/svg" width="28.262" height="28.411" viewBox="0 0 28.262 28.411">
  <path id="Search-icon" d="M948.279,453.75H946.94l-.446-.446a9.957,9.957,0,0,0,2.529-6.843,10.561,10.561,0,1,0-10.561,10.561,9.957,9.957,0,0,0,6.842-2.529l.446.446v1.339l8.033,8.033,2.38-2.38-7.884-8.181Zm-9.669,0a7.289,7.289,0,1,1,7.289-7.289,7.3,7.3,0,0,1-7.289,7.289Z" transform="translate(-927.9 -435.9)" fill="#fff"/>
</svg>
